{
  "$schema": "https://raw.githubusercontent.com/DotNetAnalyzers/StyleCopAnalyzers/master/StyleCop.Analyzers/StyleCop.Analyzers/Settings/stylecop.schema.json",
  "settings": {
    "orderingRules": {
      "usingDirectivesPlacement": "outsideNamespace",
      "blankLinesBetweenUsingGroups": "require"
    },
    "namingRules": {
      "allowCommonHungarianPrefixes": false
    },
    "maintainabilityRules": {
      "topLevelTypes": [
        "class",
        "interface",
        "struct",
        "enum"
      ]
    },
    "layoutRules": {
      "newlineAtEndOfFile": "require"
    },
    "documentationRules": {
      "documentInterfaces": false,
      "documentExposedElements": false,
      "documentInternalElements": false
    }
  }
}
